{
    "command": {
        "bootstrap": {
            "npmClientArgs": [
                "--no-package-lock"
            ]
        },
        "publish": {
            "npmClientArgs": [
                "--no-push",
                "--no-private",
                "--force-publish"
            ]
        }
    },
    "packages": [
        "packages/caliper-core",
        "packages/caliper-fabric",
        "packages/caliper-cli",
        "packages/caliper-gui-dashboard",
        "packages/caliper-gui-server",
        "packages/generator-caliper"
    ],
    "version": "0.4.13",
    "hoist": true
}
